Mini-Project #01: Fiscal Characteristics of Major US Public Transit Systems. By Cristel Zuniga – STA 9750 2024 Submission Material
…
USAGE_2022_ANNUAL <- USAGE |>
  filter(year(month) == 2022) |>
  group_by(`NTD ID`, Agency, `UZA Name`, Mode) |>
  summarize(
    UPT = sum(UPT, na.rm = TRUE),
    VRM = sum(VRM, na.rm = TRUE)
  ) %>%
  ungroup()

`summarise()` has grouped output by 'NTD ID', 'Agency', 'UZA Name'. You can
override using the `.groups` argument.

print(USAGE_2022_ANNUAL)

# A tibble: 1,141 × 6
   `NTD ID` Agency                                `UZA Name` Mode     UPT    VRM
      <int> <chr>                                 <chr>      <chr>  <dbl>  <dbl>
 1        1 King County                           Seattle--… Bus   5.40e7 6.16e7
 2        1 King County                           Seattle--… Dema… 6.63e5 1.29e7
 3        1 King County                           Seattle--… Ferr… 4.00e5 5.12e4
 4        1 King County                           Seattle--… Stre… 1.12e6 1.80e5
 5        1 King County                           Seattle--… Trol… 9.58e6 2.64e6
 6        1 King County                           Seattle--… Vanp… 7.03e5 4.41e6
 7        2 Spokane Transit Authority             Spokane, … Bus   6.60e6 6.49e6
 8        2 Spokane Transit Authority             Spokane, … Dema… 3.10e5 4.04e6
 9        2 Spokane Transit Authority             Spokane, … Vanp… 9.06e4 9.06e5
10        3 Pierce County Transportation Benefit… Seattle--… Bus   4.95e6 4.23e6
# ℹ 1,131 more rows
…
colnames(USAGE_2022_ANNUAL)

[1] "NTD ID"   "Agency"   "UZA Name" "Mode"     "UPT"      "VRM"     

colnames(FINANCIALS)

[1] "NTD ID"      "Agency Name" "Mode"        "Total Fares" "Expenses"   

distinct(USAGE_2022_ANNUAL)

# A tibble: 1,141 × 6
   `NTD ID` Agency                                `UZA Name` Mode     UPT    VRM
      <int> <chr>                                 <chr>      <chr>  <dbl>  <dbl>
 1        1 King County                           Seattle--… Bus   5.40e7 6.16e7
 2        1 King County                           Seattle--… Dema… 6.63e5 1.29e7
 3        1 King County                           Seattle--… Ferr… 4.00e5 5.12e4
 4        1 King County                           Seattle--… Stre… 1.12e6 1.80e5
 5        1 King County                           Seattle--… Trol… 9.58e6 2.64e6
 6        1 King County                           Seattle--… Vanp… 7.03e5 4.41e6
 7        2 Spokane Transit Authority             Spokane, … Bus   6.60e6 6.49e6
 8        2 Spokane Transit Authority             Spokane, … Dema… 3.10e5 4.04e6
 9        2 Spokane Transit Authority             Spokane, … Vanp… 9.06e4 9.06e5
10        3 Pierce County Transportation Benefit… Seattle--… Bus   4.95e6 4.23e6
# ℹ 1,131 more rows

distinct(FINANCIALS)

# A tibble: 1,173 × 5
   `NTD ID` `Agency Name`                           Mode  `Total Fares` Expenses
      <dbl> <chr>                                   <chr>         <dbl>    <dbl>
 1        1 King County Department of Metro Transit Comm…       5216912   0     
 2        1 King County Department of Metro Transit Dema…        832327   6.05e7
 3        1 King County Department of Metro Transit Ferr…       1715265   8.90e6
 4        1 King County Department of Metro Transit Ligh…      29386480   0     
 5        1 King County Department of Metro Transit Bus        56846337   6.72e8
 6        1 King County Department of Metro Transit Stre…        588495   1.25e7
 7        1 King County Department of Metro Transit Trol…      10123486   8.42e7
 8        1 King County Department of Metro Transit Vanp…       5484481   8.91e6
 9        2 Spokane Transit Authority               Dema…        531284   1.80e7
10        2 Spokane Transit Authority               Bus         6135110   7.53e7
# ℹ 1,163 more rows

USAGE_AND_FINANCIALS <- left_join(USAGE_2022_ANNUAL, 
                                  FINANCIALS, 
                                  join_by(`NTD ID`, Mode)) |>
  drop_na()
USAGE_AND_FINANCIALS

# A tibble: 1,132 × 9
   `NTD ID` Agency    `UZA Name` Mode     UPT    VRM `Agency Name` `Total Fares`
      <dbl> <chr>     <chr>      <chr>  <dbl>  <dbl> <chr>                 <dbl>
 1        1 King Cou… Seattle--… Bus   5.40e7 6.16e7 King County …      56846337
 2        1 King Cou… Seattle--… Dema… 6.63e5 1.29e7 King County …        832327
 3        1 King Cou… Seattle--… Ferr… 4.00e5 5.12e4 King County …       1715265
 4        1 King Cou… Seattle--… Stre… 1.12e6 1.80e5 King County …        588495
 5        1 King Cou… Seattle--… Trol… 9.58e6 2.64e6 King County …      10123486
 6        1 King Cou… Seattle--… Vanp… 7.03e5 4.41e6 King County …       5484481
 7        2 Spokane … Spokane, … Bus   6.60e6 6.49e6 Spokane Tran…       6135110
 8        2 Spokane … Spokane, … Dema… 3.10e5 4.04e6 Spokane Tran…        531284
 9        2 Spokane … Spokane, … Vanp… 9.06e4 9.06e5 Spokane Tran…        247718
10        3 Pierce C… Seattle--… Bus   4.95e6 4.23e6 Pierce Count…       4356831
# ℹ 1,122 more rows
# ℹ 1 more variable: Expenses <dbl>
…
