Mini project 02 – STA 9750 2024 Submission Material
…
# Select actors and director
top_actors_director <- successful_people |>
  filter(category %in% c("actor", "actress", "director")) |>
  slice_head(n = 25)  

top_actors_director |> select(primaryName, category, num_successful_movies, avg_success_metric)

# A tibble: 25 × 4
   primaryName       category num_successful_movies avg_success_metric
   <chr>             <chr>                    <int>              <dbl>
 1 Dee Bradley Baker actor                     1720               63.2
 2 Dan Castellaneta  actor                     1315               60.8
 3 Hank Azaria       actor                     1302               60.8
 4 Harry Shearer     actor                     1276               60.8
 5 John DiMaggio     actor                     1187               61.7
 6 Nancy Cartwright  actress                   1042               60.7
 7 Tress MacNeille   actress                   1004               59.7
 8 Trey Parker       actor                      976               64.7
 9 Seth MacFarlane   actor                      975               56.7
10 Matt Stone        actor                      947               64.9
# ℹ 15 more rows

filtered_actors_director <- top_actors_director |>
  inner_join(TITLE_PRINCIPALS, by = "nconst") |>
  inner_join(TITLE_BASICS, by = "tconst") |>
  filter(genres %in% c("Comedy", "Drama", "Comedy,Drama", "Romance")) |>
  select(primaryName, num_successful_movies, avg_success_metric, genres)

filtered_actors_director

# A tibble: 1,360 × 4
   primaryName       num_successful_movies avg_success_metric genres
   <chr>                             <int>              <dbl> <chr> 
 1 Dee Bradley Baker                  1720               63.2 Comedy
 2 Dee Bradley Baker                  1720               63.2 Comedy
 3 Dee Bradley Baker                  1720               63.2 Comedy
 4 Dee Bradley Baker                  1720               63.2 Comedy
 5 Dee Bradley Baker                  1720               63.2 Comedy
 6 Dee Bradley Baker                  1720               63.2 Comedy
 7 Dan Castellaneta                   1315               60.8 Comedy
 8 Dan Castellaneta                   1315               60.8 Comedy
 9 Dan Castellaneta                   1315               60.8 Comedy
10 Dan Castellaneta                   1315               60.8 Comedy
# ℹ 1,350 more rows
…
